…
Não, pois o tidy apresenta 10 linhas e a tabela em questão 39.

**c)**

``` r
dados_co2 %>%                
  pivot_longer(
    1:13,                
    names_to = "ano",    
    values_to = "co2" 
  )
```

    ## # A tibble: 507 x 2
    ##    ano     co2
    ##    <chr> <dbl>
    ##  1 ano   1959 
    ##  2 jan    315.
    ##  3 fev    316.
    ##  4 mar    316.
    ##  5 abr    318.
    ##  6 mai    318.
    ##  7 jun    318 
    ##  8 jul    316.
    ##  9 ago    315.
    ## 10 set    314.
    ## # ... with 497 more rows
…
